<svg xmlns="http://www.w3.org/2000/svg" width="24" height="24" viewBox="0 0 24 24">
    <defs>
        <filter id="ysrcxyjyza">
            <feColorMatrix in="SourceGraphic" values="0 0 0 0 1.000000 0 0 0 0 1.000000 0 0 0 0 1.000000 0 0 0 1.000000 0"/>
        </filter>
    </defs>
    <g fill="none" fill-rule="evenodd">
        <g>
            <g>
                <g>
                    <g filter="url(#ysrcxyjyza)" transform="translate(-131 -861) translate(100 100) translate(25 752) translate(6 9)">
                        <path d="M0 0L24 0 24 24 0 24z"/>
                        <path fill="#000" fill-rule="nonzero" d="M3.783 2.826L12 1l8.217 1.826c.457.102.783.507.783.976v9.987c0 2.006-1.003 3.88-2.672 4.992L12 23l-6.328-4.219C4.003 17.669 3 15.796 3 13.79V3.802c0-.469.326-.874.783-.976zM12 11c1.38 0 2.5-1.12 2.5-2.5S13.38 6 12 6 9.5 7.12 9.5 8.5 10.62 11 12 11zm-4.473 5h8.946c-.251-2.281-2.178-4.008-4.473-4.008S7.778 13.72 7.527 16z"/>
                    </g>
                </g>
            </g>
        </g>
    </g>
</svg>
