<svg xmlns="http://www.w3.org/2000/svg" width="24" height="24" viewBox="0 0 24 24">
    <defs>
        <filter id="xqklbx1kaa">
            <feColorMatrix in="SourceGraphic" values="0 0 0 0 1.000000 0 0 0 0 1.000000 0 0 0 0 1.000000 0 0 0 1.000000 0"/>
        </filter>
    </defs>
    <g fill="none" fill-rule="evenodd">
        <g>
            <g>
                <g>
                    <g filter="url(#xqklbx1kaa)" transform="translate(-131 -688) translate(100 100) translate(25 580) translate(6 8)">
                        <path d="M0 0L24 0 24 24 0 24z"/>
                        <path fill="#000" fill-rule="nonzero" d="M21 15.243v5.765c0 .548-.445.992-.993.992H3.993c-.265-.002-.519-.109-.705-.298-.186-.189-.29-.444-.288-.709V9h6c.552 0 1-.448 1-1V2h10.002c.551 0 .998.455.998.992v3.765l-8.999 9-.006 4.238 4.246.006L21 15.243zm.778-6.435l1.414 1.414L15.414 18l-1.416-.002.002-1.412 7.778-7.778zM3 7l5-4.997V7H3z"/>
                    </g>
                </g>
            </g>
        </g>
    </g>
</svg>
