<svg xmlns="http://www.w3.org/2000/svg" width="27" height="27" viewBox="0 0 27 27">
    <g fill="none" fill-rule="evenodd">
        <g>
            <g>
                <g>
                    <g>
                        <path d="M0 0L27 0 27 27 0 27z" transform="translate(-129 -428) translate(100 100) translate(25 322) translate(4 6)"/>
                        <path fill="#FFF" fill-rule="nonzero" d="M7.875 4.5v18h11.25v-18H7.875zM6.75 2.25h13.5c.621 0 1.125.504 1.125 1.125v20.25c0 .621-.504 1.125-1.125 1.125H6.75c-.621 0-1.125-.504-1.125-1.125V3.375c0-.621.504-1.125 1.125-1.125zm6.75 15.875c.621 0 1.125.504 1.125 1.125s-.504 1.125-1.125 1.125-1.125-.504-1.125-1.125.504-1.125 1.125-1.125z" transform="translate(-129 -428) translate(100 100) translate(25 322) translate(4 6)"/>
                    </g>
                </g>
            </g>
        </g>
    </g>
</svg>
