<?xml version="1.0" encoding="utf-8"?>
<!DOCTYPE svg PUBLIC "-//W3C//DTD SVG 1.1//EN" "http://www.w3.org/Graphics/SVG/1.1/DTD/svg11.dtd">
<svg version="1.1" xmlns="http://www.w3.org/2000/svg" xmlns:xlink="http://www.w3.org/1999/xlink" width="16" height="16" viewBox="0 0 16 16">
<path d="M7 9v-7c-3.866 0-7 3.134-7 7s3.134 7 7 7 7-3.134 7-7c0-1.126-0.266-2.189-0.738-3.131l-6.262 3.131zM14.262 3.869c-1.149-2.294-3.521-3.869-6.262-3.869v7l6.262-3.131z"></path>
</svg>
